\begin{tikzpicture}
	\begin{pgfonlayer}{nodelayer}
		\node [style=none] (0) at (0, 6.25) {};
		\node [style=none] (1) at (0, 0) {};
		\node [style=none] (2) at (9, 0) {};
		\node [style=none] (3) at (-0.75, -0.75) {$0$};
		\node [style=none] (4) at (-1, 6.5) {$P$};
		\node [style=none] (5) at (9, -1) {$V$};
		\node [style=none] (6) at (6.75, 2) {};
		\node [style=none] (7) at (1.25, 5.75) {};
		\node [style=none] (8) at (1.25, 0) {};
		\node [style=none] (9) at (6.75, 0) {};
	\end{pgfonlayer}
	\begin{pgfonlayer}{edgelayer}
		\draw [style=arrow] (1.center) to (0.center);
		\draw [style=arrow] (1.center) to (2.center);
		\draw [bend right, looseness=1.25] (7.center) to (6.center);
		\draw [style=pointille] (9.center) to (6.center);
		\draw [style=pointille] (8.center) to (7.center);
	\end{pgfonlayer}
\end{tikzpicture}
