\begin{tikzpicture}
	\begin{pgfonlayer}{nodelayer}
		\node [style=none] (0) at (0, 0) {};
		\node [style=none] (1) at (0, 0) {};
		\node [style=none] (2) at (0, 6) {};
		\node [style=none] (3) at (8, 0) {};
		\node [style=none] (4) at (-1.25, 6) {$P$};
		\node [style=none] (7) at (8.5, -0.75) {$V$};
		\node [style=none] (10) at (6.25, 0) {};
		\node [style=none] (11) at (0, 4) {};
		\node [style=none] (12) at (1.75, 2) {};
		\node [style=none] (13) at (5.25, 0.5) {};
		\node [style=none] (14) at (6.25, 3.5) {};
		\node [style=none] (15) at (3.75, 4.25) {};
		\node [style=none] (16) at (4, 4.5) {$A$};
		\node [style=none] (17) at (6.75, 4) {$2$};
		\node [style=none] (18) at (5.75, 0.25) {$B$};
		\node [style=none] (19) at (1.75, 0) {};
		\node [style=none] (22) at (1.25, 2) {1};
		\node [style=none] (23) at (4.25, 2.25) {$|W_{cycle}|$};
	\end{pgfonlayer}
	\begin{pgfonlayer}{edgelayer}
		\draw [style=arrow] (1.center) to (3.center);
		\draw [style=arrow] (0.center) to (2.center);
		\draw [bend right=45, looseness=1.25] (12.center) to (13.center);
		\draw [style=arrow, bend right=45, looseness=1.25] (13.center) to (14.center);
		\draw [bend right, looseness=0.75] (14.center) to (15.center);
		\draw [style=arrow, in=-180, out=105, looseness=1.50] (12.center) to (15.center);
	\end{pgfonlayer}
\end{tikzpicture}
